%YAML 1.1
%TAG !u! tag:unity3d.com,2011:
--- !u!21 &2100000
Material:
  serializedVersion: 6
  m_ObjectHideFlags: 0
  m_PrefabParentObject: {fileID: 0}
  m_PrefabInternal: {fileID: 0}
  m_Name: pl_eu_ve4_mat
  m_Shader: {fileID: 22, guid: 0000000000000000f000000000000000, type: 0}
  m_ShaderKeywords: 
  m_LightmapFlags: 4
  m_EnableInstancingVariants: 0
  m_DoubleSidedGI: 0
  m_CustomRenderQueue: -1
  stringTagMap: {}
  disabledShaderPasses: []
  m_SavedProperties:
    serializedVersion: 3
    m_TexEnvs:
    - _BumpMap:
        m_Texture: {fileID: 0}
        m_Scale: {x: 1, y: 1}
        m_Offset: {x: 0, y: 0}
    - _Cube:
        m_Texture: {fileID: 8900000, guid: 75be54b03a793304db1e112607014386, type: 2}
        m_Scale: {x: 1, y: 1}
        m_Offset: {x: 0, y: 0}
    - _Gloss:
        m_Texture: {fileID: 2800000, guid: 4f18c671a48fb274ea24e51619daafb8, type: 3}
        m_Scale: {x: 1, y: 1}
        m_Offset: {x: 0, y: 0}
    - _MainTex:
        m_Texture: {fileID: 2800000, guid: 08c78594c53ae214aa60422712372b9b, type: 3}
        m_Scale: {x: 1, y: 1}
        m_Offset: {x: 0, y: 0}
    m_Floats:
    - _FresnelBase: 0
    - _FresnelFading: 0.53571427
    - _FresnelPower: 2.0416071
    - _FrezFalloff: 3.4642856
    - _FrezPow: 0.42857143
    - _Gloss: 1.1785715
    - _LightingBase: 0.5
    - _LightingMul: 0.5
    - _Reflection: 0.071428575
    - _ReflectionPower: 1
    - _Shininess: 0.41320485
    m_Colors:
    - _Color: {r: 1, g: 1, b: 1, a: 1}
    - _ReflectColor: {r: 0.19607843, g: 0.19607843, b: 0.19607843, a: 1}
    - _SpecColor: {r: 0.27205884, g: 0.27205884, b: 0.27205884, a: 1}
